# 1 "algB.c"
# 1 "<command-line>"
# 1 "algB.c"
# 1 "/usr/include/stdio.h" 1 3 4
# 28 "/usr/include/stdio.h" 3 4
# 1 "/usr/include/features.h" 1 3 4
# 324 "/usr/include/features.h" 3 4
# 1 "/usr/include/i386-linux-gnu/bits/predefs.h" 1 3 4
# 325 "/usr/include/features.h" 2 3 4
# 357 "/usr/include/features.h" 3 4
# 1 "/usr/include/i386-linux-gnu/sys/cdefs.h" 1 3 4
# 378 "/usr/include/i386-linux-gnu/sys/cdefs.h" 3 4
# 1 "/usr/include/i386-linux-gnu/bits/wordsize.h" 1 3 4
# 379 "/usr/include/i386-linux-gnu/sys/cdefs.h" 2 3 4
# 358 "/usr/include/features.h" 2 3 4
# 389 "/usr/include/features.h" 3 4
# 1 "/usr/include/i386-linux-gnu/gnu/stubs.h" 1 3 4



# 1 "/usr/include/i386-linux-gnu/bits/wordsize.h" 1 3 4
# 5 "/usr/include/i386-linux-gnu/gnu/stubs.h" 2 3 4


# 1 "/usr/include/i386-linux-gnu/gnu/stubs-32.h" 1 3 4
# 8 "/usr/include/i386-linux-gnu/gnu/stubs.h" 2 3 4
# 390 "/usr/include/features.h" 2 3 4
# 29 "/usr/include/stdio.h" 2 3 4





# 1 "/usr/lib/gcc/i686-linux-gnu/4.7/include/stddef.h" 1 3 4
# 213 "/usr/lib/gcc/i686-linux-gnu/4.7/include/stddef.h" 3 4
typedef unsigned int size_t;
# 35 "/usr/include/stdio.h" 2 3 4

# 1 "/usr/include/i386-linux-gnu/bits/types.h" 1 3 4
# 28 "/usr/include/i386-linux-gnu/bits/types.h" 3 4
# 1 "/usr/include/i386-linux-gnu/bits/wordsize.h" 1 3 4
# 29 "/usr/include/i386-linux-gnu/bits/types.h" 2 3 4


typedef unsigned char __u_char;
typedef unsigned short int __u_short;
typedef unsigned int __u_int;
typedef unsigned long int __u_long;


typedef signed char __int8_t;
typedef unsigned char __uint8_t;
typedef signed short int __int16_t;
typedef unsigned short int __uint16_t;
typedef signed int __int32_t;
typedef unsigned int __uint32_t;




__extension__ typedef signed long long int __int64_t;
__extension__ typedef unsigned long long int __uint64_t;







__extension__ typedef long long int __quad_t;
__extension__ typedef unsigned long long int __u_quad_t;
# 131 "/usr/include/i386-linux-gnu/bits/types.h" 3 4
# 1 "/usr/include/i386-linux-gnu/bits/typesizes.h" 1 3 4
# 132 "/usr/include/i386-linux-gnu/bits/types.h" 2 3 4


__extension__ typedef __u_quad_t __dev_t;
__extension__ typedef unsigned int __uid_t;
__extension__ typedef unsigned int __gid_t;
__extension__ typedef unsigned long int __ino_t;
__extension__ typedef __u_quad_t __ino64_t;
__extension__ typedef unsigned int __mode_t;
__extension__ typedef unsigned int __nlink_t;
__extension__ typedef long int __off_t;
__extension__ typedef __quad_t __off64_t;
__extension__ typedef int __pid_t;
__extension__ typedef struct { int __val[2]; } __fsid_t;
__extension__ typedef long int __clock_t;
__extension__ typedef unsigned long int __rlim_t;
__extension__ typedef __u_quad_t __rlim64_t;
__extension__ typedef unsigned int __id_t;
__extension__ typedef long int __time_t;
__extension__ typedef unsigned int __useconds_t;
__extension__ typedef long int __suseconds_t;

__extension__ typedef int __daddr_t;
__extension__ typedef long int __swblk_t;
__extension__ typedef int __key_t;


__extension__ typedef int __clockid_t;


__extension__ typedef void * __timer_t;


__extension__ typedef long int __blksize_t;




__extension__ typedef long int __blkcnt_t;
__extension__ typedef __quad_t __blkcnt64_t;


__extension__ typedef unsigned long int __fsblkcnt_t;
__extension__ typedef __u_quad_t __fsblkcnt64_t;


__extension__ typedef unsigned long int __fsfilcnt_t;
__extension__ typedef __u_quad_t __fsfilcnt64_t;

__extension__ typedef int __ssize_t;



typedef __off64_t __loff_t;
typedef __quad_t *__qaddr_t;
typedef char *__caddr_t;


__extension__ typedef int __intptr_t;


__extension__ typedef unsigned int __socklen_t;
# 37 "/usr/include/stdio.h" 2 3 4
# 45 "/usr/include/stdio.h" 3 4
struct _IO_FILE;



typedef struct _IO_FILE FILE;





# 65 "/usr/include/stdio.h" 3 4
typedef struct _IO_FILE __FILE;
# 75 "/usr/include/stdio.h" 3 4
# 1 "/usr/include/libio.h" 1 3 4
# 32 "/usr/include/libio.h" 3 4
# 1 "/usr/include/_G_config.h" 1 3 4
# 15 "/usr/include/_G_config.h" 3 4
# 1 "/usr/lib/gcc/i686-linux-gnu/4.7/include/stddef.h" 1 3 4
# 16 "/usr/include/_G_config.h" 2 3 4




# 1 "/usr/include/wchar.h" 1 3 4
# 83 "/usr/include/wchar.h" 3 4
typedef struct
{
  int __count;
  union
  {

    unsigned int __wch;



    char __wchb[4];
  } __value;
} __mbstate_t;
# 21 "/usr/include/_G_config.h" 2 3 4

typedef struct
{
  __off_t __pos;
  __mbstate_t __state;
} _G_fpos_t;
typedef struct
{
  __off64_t __pos;
  __mbstate_t __state;
} _G_fpos64_t;
# 53 "/usr/include/_G_config.h" 3 4
typedef int _G_int16_t __attribute__ ((__mode__ (__HI__)));
typedef int _G_int32_t __attribute__ ((__mode__ (__SI__)));
typedef unsigned int _G_uint16_t __attribute__ ((__mode__ (__HI__)));
typedef unsigned int _G_uint32_t __attribute__ ((__mode__ (__SI__)));
# 33 "/usr/include/libio.h" 2 3 4
# 53 "/usr/include/libio.h" 3 4
# 1 "/usr/lib/gcc/i686-linux-gnu/4.7/include/stdarg.h" 1 3 4
# 40 "/usr/lib/gcc/i686-linux-gnu/4.7/include/stdarg.h" 3 4
typedef __builtin_va_list __gnuc_va_list;
# 54 "/usr/include/libio.h" 2 3 4
# 172 "/usr/include/libio.h" 3 4
struct _IO_jump_t; struct _IO_FILE;
# 182 "/usr/include/libio.h" 3 4
typedef void _IO_lock_t;





struct _IO_marker {
  struct _IO_marker *_next;
  struct _IO_FILE *_sbuf;



  int _pos;
# 205 "/usr/include/libio.h" 3 4
};


enum __codecvt_result
{
  __codecvt_ok,
  __codecvt_partial,
  __codecvt_error,
  __codecvt_noconv
};
# 273 "/usr/include/libio.h" 3 4
struct _IO_FILE {
  int _flags;




  char* _IO_read_ptr;
  char* _IO_read_end;
  char* _IO_read_base;
  char* _IO_write_base;
  char* _IO_write_ptr;
  char* _IO_write_end;
  char* _IO_buf_base;
  char* _IO_buf_end;

  char *_IO_save_base;
  char *_IO_backup_base;
  char *_IO_save_end;

  struct _IO_marker *_markers;

  struct _IO_FILE *_chain;

  int _fileno;



  int _flags2;

  __off_t _old_offset;



  unsigned short _cur_column;
  signed char _vtable_offset;
  char _shortbuf[1];



  _IO_lock_t *_lock;
# 321 "/usr/include/libio.h" 3 4
  __off64_t _offset;
# 330 "/usr/include/libio.h" 3 4
  void *__pad1;
  void *__pad2;
  void *__pad3;
  void *__pad4;
  size_t __pad5;

  int _mode;

  char _unused2[15 * sizeof (int) - 4 * sizeof (void *) - sizeof (size_t)];

};


typedef struct _IO_FILE _IO_FILE;


struct _IO_FILE_plus;

extern struct _IO_FILE_plus _IO_2_1_stdin_;
extern struct _IO_FILE_plus _IO_2_1_stdout_;
extern struct _IO_FILE_plus _IO_2_1_stderr_;
# 366 "/usr/include/libio.h" 3 4
typedef __ssize_t __io_read_fn (void *__cookie, char *__buf, size_t __nbytes);







typedef __ssize_t __io_write_fn (void *__cookie, __const char *__buf,
     size_t __n);







typedef int __io_seek_fn (void *__cookie, __off64_t *__pos, int __w);


typedef int __io_close_fn (void *__cookie);
# 418 "/usr/include/libio.h" 3 4
extern int __underflow (_IO_FILE *);
extern int __uflow (_IO_FILE *);
extern int __overflow (_IO_FILE *, int);
# 462 "/usr/include/libio.h" 3 4
extern int _IO_getc (_IO_FILE *__fp);
extern int _IO_putc (int __c, _IO_FILE *__fp);
extern int _IO_feof (_IO_FILE *__fp) __attribute__ ((__nothrow__ , __leaf__));
extern int _IO_ferror (_IO_FILE *__fp) __attribute__ ((__nothrow__ , __leaf__));

extern int _IO_peekc_locked (_IO_FILE *__fp);





extern void _IO_flockfile (_IO_FILE *) __attribute__ ((__nothrow__ , __leaf__));
extern void _IO_funlockfile (_IO_FILE *) __attribute__ ((__nothrow__ , __leaf__));
extern int _IO_ftrylockfile (_IO_FILE *) __attribute__ ((__nothrow__ , __leaf__));
# 492 "/usr/include/libio.h" 3 4
extern int _IO_vfscanf (_IO_FILE * __restrict, const char * __restrict,
   __gnuc_va_list, int *__restrict);
extern int _IO_vfprintf (_IO_FILE *__restrict, const char *__restrict,
    __gnuc_va_list);
extern __ssize_t _IO_padn (_IO_FILE *, int, __ssize_t);
extern size_t _IO_sgetn (_IO_FILE *, void *, size_t);

extern __off64_t _IO_seekoff (_IO_FILE *, __off64_t, int, int);
extern __off64_t _IO_seekpos (_IO_FILE *, __off64_t, int);

extern void _IO_free_backup_area (_IO_FILE *) __attribute__ ((__nothrow__ , __leaf__));
# 76 "/usr/include/stdio.h" 2 3 4
# 109 "/usr/include/stdio.h" 3 4


typedef _G_fpos_t fpos_t;




# 165 "/usr/include/stdio.h" 3 4
# 1 "/usr/include/i386-linux-gnu/bits/stdio_lim.h" 1 3 4
# 166 "/usr/include/stdio.h" 2 3 4



extern struct _IO_FILE *stdin;
extern struct _IO_FILE *stdout;
extern struct _IO_FILE *stderr;







extern int remove (__const char *__filename) __attribute__ ((__nothrow__ , __leaf__));

extern int rename (__const char *__old, __const char *__new) __attribute__ ((__nothrow__ , __leaf__));














extern FILE *tmpfile (void) __attribute__ ((__warn_unused_result__));
# 210 "/usr/include/stdio.h" 3 4
extern char *tmpnam (char *__s) __attribute__ ((__nothrow__ , __leaf__)) __attribute__ ((__warn_unused_result__));

# 233 "/usr/include/stdio.h" 3 4





extern int fclose (FILE *__stream);




extern int fflush (FILE *__stream);

# 267 "/usr/include/stdio.h" 3 4






extern FILE *fopen (__const char *__restrict __filename,
      __const char *__restrict __modes) __attribute__ ((__warn_unused_result__));




extern FILE *freopen (__const char *__restrict __filename,
        __const char *__restrict __modes,
        FILE *__restrict __stream) __attribute__ ((__warn_unused_result__));
# 296 "/usr/include/stdio.h" 3 4

# 330 "/usr/include/stdio.h" 3 4



extern void setbuf (FILE *__restrict __stream, char *__restrict __buf) __attribute__ ((__nothrow__ , __leaf__));



extern int setvbuf (FILE *__restrict __stream, char *__restrict __buf,
      int __modes, size_t __n) __attribute__ ((__nothrow__ , __leaf__));

# 352 "/usr/include/stdio.h" 3 4





extern int fprintf (FILE *__restrict __stream,
      __const char *__restrict __format, ...);




extern int printf (__const char *__restrict __format, ...);

extern int sprintf (char *__restrict __s,
      __const char *__restrict __format, ...) __attribute__ ((__nothrow__));





extern int vfprintf (FILE *__restrict __s, __const char *__restrict __format,
       __gnuc_va_list __arg);




extern int vprintf (__const char *__restrict __format, __gnuc_va_list __arg);

extern int vsprintf (char *__restrict __s, __const char *__restrict __format,
       __gnuc_va_list __arg) __attribute__ ((__nothrow__));





extern int snprintf (char *__restrict __s, size_t __maxlen,
       __const char *__restrict __format, ...)
     __attribute__ ((__nothrow__)) __attribute__ ((__format__ (__printf__, 3, 4)));

extern int vsnprintf (char *__restrict __s, size_t __maxlen,
        __const char *__restrict __format, __gnuc_va_list __arg)
     __attribute__ ((__nothrow__)) __attribute__ ((__format__ (__printf__, 3, 0)));

# 426 "/usr/include/stdio.h" 3 4





extern int fscanf (FILE *__restrict __stream,
     __const char *__restrict __format, ...) __attribute__ ((__warn_unused_result__));




extern int scanf (__const char *__restrict __format, ...) __attribute__ ((__warn_unused_result__));

extern int sscanf (__const char *__restrict __s,
     __const char *__restrict __format, ...) __attribute__ ((__nothrow__ , __leaf__));
# 449 "/usr/include/stdio.h" 3 4
extern int fscanf (FILE *__restrict __stream, __const char *__restrict __format, ...) __asm__ ("" "__isoc99_fscanf")

                          __attribute__ ((__warn_unused_result__));
extern int scanf (__const char *__restrict __format, ...) __asm__ ("" "__isoc99_scanf")
                         __attribute__ ((__warn_unused_result__));
extern int sscanf (__const char *__restrict __s, __const char *__restrict __format, ...) __asm__ ("" "__isoc99_sscanf") __attribute__ ((__nothrow__ , __leaf__))

                      ;
# 469 "/usr/include/stdio.h" 3 4








extern int vfscanf (FILE *__restrict __s, __const char *__restrict __format,
      __gnuc_va_list __arg)
     __attribute__ ((__format__ (__scanf__, 2, 0))) __attribute__ ((__warn_unused_result__));





extern int vscanf (__const char *__restrict __format, __gnuc_va_list __arg)
     __attribute__ ((__format__ (__scanf__, 1, 0))) __attribute__ ((__warn_unused_result__));


extern int vsscanf (__const char *__restrict __s,
      __const char *__restrict __format, __gnuc_va_list __arg)
     __attribute__ ((__nothrow__ , __leaf__)) __attribute__ ((__format__ (__scanf__, 2, 0)));
# 500 "/usr/include/stdio.h" 3 4
extern int vfscanf (FILE *__restrict __s, __const char *__restrict __format, __gnuc_va_list __arg) __asm__ ("" "__isoc99_vfscanf")



     __attribute__ ((__format__ (__scanf__, 2, 0))) __attribute__ ((__warn_unused_result__));
extern int vscanf (__const char *__restrict __format, __gnuc_va_list __arg) __asm__ ("" "__isoc99_vscanf")

     __attribute__ ((__format__ (__scanf__, 1, 0))) __attribute__ ((__warn_unused_result__));
extern int vsscanf (__const char *__restrict __s, __const char *__restrict __format, __gnuc_va_list __arg) __asm__ ("" "__isoc99_vsscanf") __attribute__ ((__nothrow__ , __leaf__))



     __attribute__ ((__format__ (__scanf__, 2, 0)));
# 528 "/usr/include/stdio.h" 3 4









extern int fgetc (FILE *__stream);
extern int getc (FILE *__stream);





extern int getchar (void);

# 571 "/usr/include/stdio.h" 3 4








extern int fputc (int __c, FILE *__stream);
extern int putc (int __c, FILE *__stream);





extern int putchar (int __c);

# 623 "/usr/include/stdio.h" 3 4





extern char *fgets (char *__restrict __s, int __n, FILE *__restrict __stream)
     __attribute__ ((__warn_unused_result__));






extern char *gets (char *__s) __attribute__ ((__warn_unused_result__));

# 681 "/usr/include/stdio.h" 3 4





extern int fputs (__const char *__restrict __s, FILE *__restrict __stream);





extern int puts (__const char *__s);






extern int ungetc (int __c, FILE *__stream);






extern size_t fread (void *__restrict __ptr, size_t __size,
       size_t __n, FILE *__restrict __stream) __attribute__ ((__warn_unused_result__));




extern size_t fwrite (__const void *__restrict __ptr, size_t __size,
        size_t __n, FILE *__restrict __s);

# 741 "/usr/include/stdio.h" 3 4





extern int fseek (FILE *__stream, long int __off, int __whence);




extern long int ftell (FILE *__stream) __attribute__ ((__warn_unused_result__));




extern void rewind (FILE *__stream);

# 789 "/usr/include/stdio.h" 3 4






extern int fgetpos (FILE *__restrict __stream, fpos_t *__restrict __pos);




extern int fsetpos (FILE *__stream, __const fpos_t *__pos);
# 812 "/usr/include/stdio.h" 3 4

# 821 "/usr/include/stdio.h" 3 4


extern void clearerr (FILE *__stream) __attribute__ ((__nothrow__ , __leaf__));

extern int feof (FILE *__stream) __attribute__ ((__nothrow__ , __leaf__)) __attribute__ ((__warn_unused_result__));

extern int ferror (FILE *__stream) __attribute__ ((__nothrow__ , __leaf__)) __attribute__ ((__warn_unused_result__));

# 838 "/usr/include/stdio.h" 3 4





extern void perror (__const char *__s);






# 1 "/usr/include/i386-linux-gnu/bits/sys_errlist.h" 1 3 4
# 851 "/usr/include/stdio.h" 2 3 4
# 931 "/usr/include/stdio.h" 3 4
# 1 "/usr/include/i386-linux-gnu/bits/stdio.h" 1 3 4
# 44 "/usr/include/i386-linux-gnu/bits/stdio.h" 3 4
extern __inline __attribute__ ((__gnu_inline__)) int
getchar (void)
{
  return _IO_getc (stdin);
}
# 79 "/usr/include/i386-linux-gnu/bits/stdio.h" 3 4
extern __inline __attribute__ ((__gnu_inline__)) int
putchar (int __c)
{
  return _IO_putc (__c, stdout);
}
# 932 "/usr/include/stdio.h" 2 3 4


# 1 "/usr/include/i386-linux-gnu/bits/stdio2.h" 1 3 4
# 24 "/usr/include/i386-linux-gnu/bits/stdio2.h" 3 4
extern int __sprintf_chk (char *__restrict __s, int __flag, size_t __slen,
     __const char *__restrict __format, ...) __attribute__ ((__nothrow__ , __leaf__));
extern int __vsprintf_chk (char *__restrict __s, int __flag, size_t __slen,
      __const char *__restrict __format,
      __gnuc_va_list __ap) __attribute__ ((__nothrow__ , __leaf__));


extern __inline __attribute__ ((__always_inline__)) __attribute__ ((__gnu_inline__, __artificial__)) int
__attribute__ ((__nothrow__ , __leaf__)) sprintf (char *__restrict __s, __const char *__restrict __fmt, ...)
{
  return __builtin___sprintf_chk (__s, 2 - 1,
      __builtin_object_size (__s, 2 > 1), __fmt, __builtin_va_arg_pack ());
}






extern __inline __attribute__ ((__always_inline__)) __attribute__ ((__gnu_inline__, __artificial__)) int
__attribute__ ((__nothrow__ , __leaf__)) vsprintf (char *__restrict __s, __const char *__restrict __fmt, __gnuc_va_list __ap)

{
  return __builtin___vsprintf_chk (__s, 2 - 1,
       __builtin_object_size (__s, 2 > 1), __fmt, __ap);
}



extern int __snprintf_chk (char *__restrict __s, size_t __n, int __flag,
      size_t __slen, __const char *__restrict __format,
      ...) __attribute__ ((__nothrow__ , __leaf__));
extern int __vsnprintf_chk (char *__restrict __s, size_t __n, int __flag,
       size_t __slen, __const char *__restrict __format,
       __gnuc_va_list __ap) __attribute__ ((__nothrow__ , __leaf__));


extern __inline __attribute__ ((__always_inline__)) __attribute__ ((__gnu_inline__, __artificial__)) int
__attribute__ ((__nothrow__ , __leaf__)) snprintf (char *__restrict __s, size_t __n, __const char *__restrict __fmt, ...)

{
  return __builtin___snprintf_chk (__s, __n, 2 - 1,
       __builtin_object_size (__s, 2 > 1), __fmt, __builtin_va_arg_pack ());
}






extern __inline __attribute__ ((__always_inline__)) __attribute__ ((__gnu_inline__, __artificial__)) int
__attribute__ ((__nothrow__ , __leaf__)) vsnprintf (char *__restrict __s, size_t __n, __const char *__restrict __fmt, __gnuc_va_list __ap)

{
  return __builtin___vsnprintf_chk (__s, __n, 2 - 1,
        __builtin_object_size (__s, 2 > 1), __fmt, __ap);
}





extern int __fprintf_chk (FILE *__restrict __stream, int __flag,
     __const char *__restrict __format, ...);
extern int __printf_chk (int __flag, __const char *__restrict __format, ...);
extern int __vfprintf_chk (FILE *__restrict __stream, int __flag,
      __const char *__restrict __format, __gnuc_va_list __ap);
extern int __vprintf_chk (int __flag, __const char *__restrict __format,
     __gnuc_va_list __ap);


extern __inline __attribute__ ((__always_inline__)) __attribute__ ((__gnu_inline__, __artificial__)) int
fprintf (FILE *__restrict __stream, __const char *__restrict __fmt, ...)
{
  return __fprintf_chk (__stream, 2 - 1, __fmt,
   __builtin_va_arg_pack ());
}

extern __inline __attribute__ ((__always_inline__)) __attribute__ ((__gnu_inline__, __artificial__)) int
printf (__const char *__restrict __fmt, ...)
{
  return __printf_chk (2 - 1, __fmt, __builtin_va_arg_pack ());
}







extern __inline __attribute__ ((__always_inline__)) __attribute__ ((__gnu_inline__, __artificial__)) int
vprintf (__const char *__restrict __fmt, __gnuc_va_list __ap)
{

  return __vfprintf_chk (stdout, 2 - 1, __fmt, __ap);



}

extern __inline __attribute__ ((__always_inline__)) __attribute__ ((__gnu_inline__, __artificial__)) int
vfprintf (FILE *__restrict __stream,
   __const char *__restrict __fmt, __gnuc_va_list __ap)
{
  return __vfprintf_chk (__stream, 2 - 1, __fmt, __ap);
}
# 220 "/usr/include/i386-linux-gnu/bits/stdio2.h" 3 4
extern char *__gets_chk (char *__str, size_t) __attribute__ ((__warn_unused_result__));
extern char *__gets_warn (char *__str) __asm__ ("" "gets")
     __attribute__ ((__warn_unused_result__)) __attribute__((__warning__ ("please use fgets or getline instead, gets can't " "specify buffer size")))
                               ;

extern __inline __attribute__ ((__always_inline__)) __attribute__ ((__gnu_inline__, __artificial__)) __attribute__ ((__warn_unused_result__)) char *
gets (char *__str)
{
  if (__builtin_object_size (__str, 2 > 1) != (size_t) -1)
    return __gets_chk (__str, __builtin_object_size (__str, 2 > 1));
  return __gets_warn (__str);
}

extern char *__fgets_chk (char *__restrict __s, size_t __size, int __n,
     FILE *__restrict __stream) __attribute__ ((__warn_unused_result__));
extern char *__fgets_alias (char *__restrict __s, int __n, FILE *__restrict __stream) __asm__ ("" "fgets")

                                        __attribute__ ((__warn_unused_result__));
extern char *__fgets_chk_warn (char *__restrict __s, size_t __size, int __n, FILE *__restrict __stream) __asm__ ("" "__fgets_chk")


     __attribute__ ((__warn_unused_result__)) __attribute__((__warning__ ("fgets called with bigger size than length " "of destination buffer")))
                                 ;

extern __inline __attribute__ ((__always_inline__)) __attribute__ ((__gnu_inline__, __artificial__)) __attribute__ ((__warn_unused_result__)) char *
fgets (char *__restrict __s, int __n, FILE *__restrict __stream)
{
  if (__builtin_object_size (__s, 2 > 1) != (size_t) -1)
    {
      if (!__builtin_constant_p (__n) || __n <= 0)
 return __fgets_chk (__s, __builtin_object_size (__s, 2 > 1), __n, __stream);

      if ((size_t) __n > __builtin_object_size (__s, 2 > 1))
 return __fgets_chk_warn (__s, __builtin_object_size (__s, 2 > 1), __n, __stream);
    }
  return __fgets_alias (__s, __n, __stream);
}

extern size_t __fread_chk (void *__restrict __ptr, size_t __ptrlen,
      size_t __size, size_t __n,
      FILE *__restrict __stream) __attribute__ ((__warn_unused_result__));
extern size_t __fread_alias (void *__restrict __ptr, size_t __size, size_t __n, FILE *__restrict __stream) __asm__ ("" "fread")


            __attribute__ ((__warn_unused_result__));
extern size_t __fread_chk_warn (void *__restrict __ptr, size_t __ptrlen, size_t __size, size_t __n, FILE *__restrict __stream) __asm__ ("" "__fread_chk")




     __attribute__ ((__warn_unused_result__)) __attribute__((__warning__ ("fread called with bigger size * nmemb than length " "of destination buffer")))
                                 ;

extern __inline __attribute__ ((__always_inline__)) __attribute__ ((__gnu_inline__, __artificial__)) __attribute__ ((__warn_unused_result__)) size_t
fread (void *__restrict __ptr, size_t __size, size_t __n,
       FILE *__restrict __stream)
{
  if (__builtin_object_size (__ptr, 0) != (size_t) -1)
    {
      if (!__builtin_constant_p (__size)
   || !__builtin_constant_p (__n)
   || (__size | __n) >= (((size_t) 1) << (8 * sizeof (size_t) / 2)))
 return __fread_chk (__ptr, __builtin_object_size (__ptr, 0), __size, __n, __stream);

      if (__size * __n > __builtin_object_size (__ptr, 0))
 return __fread_chk_warn (__ptr, __builtin_object_size (__ptr, 0), __size, __n, __stream);
    }
  return __fread_alias (__ptr, __size, __n, __stream);
}
# 935 "/usr/include/stdio.h" 2 3 4






# 2 "algB.c" 2
# 1 "/usr/include/stdlib.h" 1 3 4
# 33 "/usr/include/stdlib.h" 3 4
# 1 "/usr/lib/gcc/i686-linux-gnu/4.7/include/stddef.h" 1 3 4
# 325 "/usr/lib/gcc/i686-linux-gnu/4.7/include/stddef.h" 3 4
typedef int wchar_t;
# 34 "/usr/include/stdlib.h" 2 3 4


# 96 "/usr/include/stdlib.h" 3 4


typedef struct
  {
    int quot;
    int rem;
  } div_t;



typedef struct
  {
    long int quot;
    long int rem;
  } ldiv_t;







__extension__ typedef struct
  {
    long long int quot;
    long long int rem;
  } lldiv_t;


# 140 "/usr/include/stdlib.h" 3 4
extern size_t __ctype_get_mb_cur_max (void) __attribute__ ((__nothrow__ , __leaf__)) __attribute__ ((__warn_unused_result__));




extern double atof (__const char *__nptr)
     __attribute__ ((__nothrow__ , __leaf__)) __attribute__ ((__pure__)) __attribute__ ((__nonnull__ (1))) __attribute__ ((__warn_unused_result__));

extern int atoi (__const char *__nptr)
     __attribute__ ((__nothrow__ , __leaf__)) __attribute__ ((__pure__)) __attribute__ ((__nonnull__ (1))) __attribute__ ((__warn_unused_result__));

extern long int atol (__const char *__nptr)
     __attribute__ ((__nothrow__ , __leaf__)) __attribute__ ((__pure__)) __attribute__ ((__nonnull__ (1))) __attribute__ ((__warn_unused_result__));





__extension__ extern long long int atoll (__const char *__nptr)
     __attribute__ ((__nothrow__ , __leaf__)) __attribute__ ((__pure__)) __attribute__ ((__nonnull__ (1))) __attribute__ ((__warn_unused_result__));





extern double strtod (__const char *__restrict __nptr,
        char **__restrict __endptr)
     __attribute__ ((__nothrow__ , __leaf__)) __attribute__ ((__nonnull__ (1))) __attribute__ ((__warn_unused_result__));





extern float strtof (__const char *__restrict __nptr,
       char **__restrict __endptr) __attribute__ ((__nothrow__ , __leaf__)) __attribute__ ((__nonnull__ (1))) __attribute__ ((__warn_unused_result__));

extern long double strtold (__const char *__restrict __nptr,
       char **__restrict __endptr)
     __attribute__ ((__nothrow__ , __leaf__)) __attribute__ ((__nonnull__ (1))) __attribute__ ((__warn_unused_result__));





extern long int strtol (__const char *__restrict __nptr,
   char **__restrict __endptr, int __base)
     __attribute__ ((__nothrow__ , __leaf__)) __attribute__ ((__nonnull__ (1))) __attribute__ ((__warn_unused_result__));

extern unsigned long int strtoul (__const char *__restrict __nptr,
      char **__restrict __endptr, int __base)
     __attribute__ ((__nothrow__ , __leaf__)) __attribute__ ((__nonnull__ (1))) __attribute__ ((__warn_unused_result__));

# 207 "/usr/include/stdlib.h" 3 4


__extension__
extern long long int strtoll (__const char *__restrict __nptr,
         char **__restrict __endptr, int __base)
     __attribute__ ((__nothrow__ , __leaf__)) __attribute__ ((__nonnull__ (1))) __attribute__ ((__warn_unused_result__));

__extension__
extern unsigned long long int strtoull (__const char *__restrict __nptr,
     char **__restrict __endptr, int __base)
     __attribute__ ((__nothrow__ , __leaf__)) __attribute__ ((__nonnull__ (1))) __attribute__ ((__warn_unused_result__));

# 277 "/usr/include/stdlib.h" 3 4

extern __inline __attribute__ ((__gnu_inline__)) double
__attribute__ ((__nothrow__ , __leaf__)) atof (__const char *__nptr)
{
  return strtod (__nptr, (char **) ((void *)0));
}
extern __inline __attribute__ ((__gnu_inline__)) int
__attribute__ ((__nothrow__ , __leaf__)) atoi (__const char *__nptr)
{
  return (int) strtol (__nptr, (char **) ((void *)0), 10);
}
extern __inline __attribute__ ((__gnu_inline__)) long int
__attribute__ ((__nothrow__ , __leaf__)) atol (__const char *__nptr)
{
  return strtol (__nptr, (char **) ((void *)0), 10);
}




__extension__ extern __inline __attribute__ ((__gnu_inline__)) long long int
__attribute__ ((__nothrow__ , __leaf__)) atoll (__const char *__nptr)
{
  return strtoll (__nptr, (char **) ((void *)0), 10);
}

# 378 "/usr/include/stdlib.h" 3 4


extern int rand (void) __attribute__ ((__nothrow__ , __leaf__));

extern void srand (unsigned int __seed) __attribute__ ((__nothrow__ , __leaf__));

# 469 "/usr/include/stdlib.h" 3 4


extern void *malloc (size_t __size) __attribute__ ((__nothrow__ , __leaf__)) __attribute__ ((__malloc__)) __attribute__ ((__warn_unused_result__));

extern void *calloc (size_t __nmemb, size_t __size)
     __attribute__ ((__nothrow__ , __leaf__)) __attribute__ ((__malloc__)) __attribute__ ((__warn_unused_result__));










extern void *realloc (void *__ptr, size_t __size)
     __attribute__ ((__nothrow__ , __leaf__)) __attribute__ ((__warn_unused_result__));

extern void free (void *__ptr) __attribute__ ((__nothrow__ , __leaf__));

# 512 "/usr/include/stdlib.h" 3 4


extern void abort (void) __attribute__ ((__nothrow__ , __leaf__)) __attribute__ ((__noreturn__));



extern int atexit (void (*__func) (void)) __attribute__ ((__nothrow__ , __leaf__)) __attribute__ ((__nonnull__ (1)));
# 531 "/usr/include/stdlib.h" 3 4

# 540 "/usr/include/stdlib.h" 3 4




extern void exit (int __status) __attribute__ ((__nothrow__ , __leaf__)) __attribute__ ((__noreturn__));
# 554 "/usr/include/stdlib.h" 3 4






extern void _Exit (int __status) __attribute__ ((__nothrow__ , __leaf__)) __attribute__ ((__noreturn__));






extern char *getenv (__const char *__name) __attribute__ ((__nothrow__ , __leaf__)) __attribute__ ((__nonnull__ (1))) __attribute__ ((__warn_unused_result__));




extern char *__secure_getenv (__const char *__name)
     __attribute__ ((__nothrow__ , __leaf__)) __attribute__ ((__nonnull__ (1))) __attribute__ ((__warn_unused_result__));
# 712 "/usr/include/stdlib.h" 3 4





extern int system (__const char *__command) __attribute__ ((__warn_unused_result__));

# 742 "/usr/include/stdlib.h" 3 4
typedef int (*__compar_fn_t) (__const void *, __const void *);
# 752 "/usr/include/stdlib.h" 3 4



extern void *bsearch (__const void *__key, __const void *__base,
        size_t __nmemb, size_t __size, __compar_fn_t __compar)
     __attribute__ ((__nonnull__ (1, 2, 5))) __attribute__ ((__warn_unused_result__));



extern void qsort (void *__base, size_t __nmemb, size_t __size,
     __compar_fn_t __compar) __attribute__ ((__nonnull__ (1, 4)));
# 771 "/usr/include/stdlib.h" 3 4
extern int abs (int __x) __attribute__ ((__nothrow__ , __leaf__)) __attribute__ ((__const__)) __attribute__ ((__warn_unused_result__));
extern long int labs (long int __x) __attribute__ ((__nothrow__ , __leaf__)) __attribute__ ((__const__)) __attribute__ ((__warn_unused_result__));



__extension__ extern long long int llabs (long long int __x)
     __attribute__ ((__nothrow__ , __leaf__)) __attribute__ ((__const__)) __attribute__ ((__warn_unused_result__));







extern div_t div (int __numer, int __denom)
     __attribute__ ((__nothrow__ , __leaf__)) __attribute__ ((__const__)) __attribute__ ((__warn_unused_result__));
extern ldiv_t ldiv (long int __numer, long int __denom)
     __attribute__ ((__nothrow__ , __leaf__)) __attribute__ ((__const__)) __attribute__ ((__warn_unused_result__));




__extension__ extern lldiv_t lldiv (long long int __numer,
        long long int __denom)
     __attribute__ ((__nothrow__ , __leaf__)) __attribute__ ((__const__)) __attribute__ ((__warn_unused_result__));

# 857 "/usr/include/stdlib.h" 3 4



extern int mblen (__const char *__s, size_t __n) __attribute__ ((__nothrow__ , __leaf__)) __attribute__ ((__warn_unused_result__));


extern int mbtowc (wchar_t *__restrict __pwc,
     __const char *__restrict __s, size_t __n) __attribute__ ((__nothrow__ , __leaf__)) __attribute__ ((__warn_unused_result__));


extern int wctomb (char *__s, wchar_t __wchar) __attribute__ ((__nothrow__ , __leaf__)) __attribute__ ((__warn_unused_result__));



extern size_t mbstowcs (wchar_t *__restrict __pwcs,
   __const char *__restrict __s, size_t __n) __attribute__ ((__nothrow__ , __leaf__));

extern size_t wcstombs (char *__restrict __s,
   __const wchar_t *__restrict __pwcs, size_t __n)
     __attribute__ ((__nothrow__ , __leaf__));

# 955 "/usr/include/stdlib.h" 3 4
# 1 "/usr/include/i386-linux-gnu/bits/stdlib.h" 1 3 4
# 24 "/usr/include/i386-linux-gnu/bits/stdlib.h" 3 4
extern char *__realpath_chk (__const char *__restrict __name,
        char *__restrict __resolved,
        size_t __resolvedlen) __attribute__ ((__nothrow__ , __leaf__)) __attribute__ ((__warn_unused_result__));
extern char *__realpath_alias (__const char *__restrict __name, char *__restrict __resolved) __asm__ ("" "realpath") __attribute__ ((__nothrow__ , __leaf__))

                                                 __attribute__ ((__warn_unused_result__));
extern char *__realpath_chk_warn (__const char *__restrict __name, char *__restrict __resolved, size_t __resolvedlen) __asm__ ("" "__realpath_chk") __attribute__ ((__nothrow__ , __leaf__))


                                                __attribute__ ((__warn_unused_result__))
     __attribute__((__warning__ ("second argument of realpath must be either NULL or at " "least PATH_MAX bytes long buffer")))
                                      ;

extern __inline __attribute__ ((__always_inline__)) __attribute__ ((__gnu_inline__, __artificial__)) __attribute__ ((__warn_unused_result__)) char *
__attribute__ ((__nothrow__ , __leaf__)) realpath (__const char *__restrict __name, char *__restrict __resolved)
{
  if (__builtin_object_size (__resolved, 2 > 1) != (size_t) -1)
    {




      return __realpath_chk (__name, __resolved, __builtin_object_size (__resolved, 2 > 1));
    }

  return __realpath_alias (__name, __resolved);
}


extern int __ptsname_r_chk (int __fd, char *__buf, size_t __buflen,
       size_t __nreal) __attribute__ ((__nothrow__ , __leaf__)) __attribute__ ((__nonnull__ (2)));
extern int __ptsname_r_alias (int __fd, char *__buf, size_t __buflen) __asm__ ("" "ptsname_r") __attribute__ ((__nothrow__ , __leaf__))

     __attribute__ ((__nonnull__ (2)));
extern int __ptsname_r_chk_warn (int __fd, char *__buf, size_t __buflen, size_t __nreal) __asm__ ("" "__ptsname_r_chk") __attribute__ ((__nothrow__ , __leaf__))


     __attribute__ ((__nonnull__ (2))) __attribute__((__warning__ ("ptsname_r called with buflen bigger than " "size of buf")))
                   ;

extern __inline __attribute__ ((__always_inline__)) __attribute__ ((__gnu_inline__, __artificial__)) int
__attribute__ ((__nothrow__ , __leaf__)) ptsname_r (int __fd, char *__buf, size_t __buflen)
{
  if (__builtin_object_size (__buf, 2 > 1) != (size_t) -1)
    {
      if (!__builtin_constant_p (__buflen))
 return __ptsname_r_chk (__fd, __buf, __buflen, __builtin_object_size (__buf, 2 > 1));
      if (__buflen > __builtin_object_size (__buf, 2 > 1))
 return __ptsname_r_chk_warn (__fd, __buf, __buflen, __builtin_object_size (__buf, 2 > 1));
    }
  return __ptsname_r_alias (__fd, __buf, __buflen);
}


extern int __wctomb_chk (char *__s, wchar_t __wchar, size_t __buflen)
  __attribute__ ((__nothrow__ , __leaf__)) __attribute__ ((__warn_unused_result__));
extern int __wctomb_alias (char *__s, wchar_t __wchar) __asm__ ("" "wctomb") __attribute__ ((__nothrow__ , __leaf__))
              __attribute__ ((__warn_unused_result__));

extern __inline __attribute__ ((__always_inline__)) __attribute__ ((__gnu_inline__, __artificial__)) __attribute__ ((__warn_unused_result__)) int
__attribute__ ((__nothrow__ , __leaf__)) wctomb (char *__s, wchar_t __wchar)
{







  if (__builtin_object_size (__s, 2 > 1) != (size_t) -1 && 16 > __builtin_object_size (__s, 2 > 1))
    return __wctomb_chk (__s, __wchar, __builtin_object_size (__s, 2 > 1));
  return __wctomb_alias (__s, __wchar);
}


extern size_t __mbstowcs_chk (wchar_t *__restrict __dst,
         __const char *__restrict __src,
         size_t __len, size_t __dstlen) __attribute__ ((__nothrow__ , __leaf__));
extern size_t __mbstowcs_alias (wchar_t *__restrict __dst, __const char *__restrict __src, size_t __len) __asm__ ("" "mbstowcs") __attribute__ ((__nothrow__ , __leaf__))


                                  ;
extern size_t __mbstowcs_chk_warn (wchar_t *__restrict __dst, __const char *__restrict __src, size_t __len, size_t __dstlen) __asm__ ("" "__mbstowcs_chk") __attribute__ ((__nothrow__ , __leaf__))



     __attribute__((__warning__ ("mbstowcs called with dst buffer smaller than len " "* sizeof (wchar_t)")))
                        ;

extern __inline __attribute__ ((__always_inline__)) __attribute__ ((__gnu_inline__, __artificial__)) size_t
__attribute__ ((__nothrow__ , __leaf__)) mbstowcs (wchar_t *__restrict __dst, __const char *__restrict __src, size_t __len)

{
  if (__builtin_object_size (__dst, 2 > 1) != (size_t) -1)
    {
      if (!__builtin_constant_p (__len))
 return __mbstowcs_chk (__dst, __src, __len,
          __builtin_object_size (__dst, 2 > 1) / sizeof (wchar_t));

      if (__len > __builtin_object_size (__dst, 2 > 1) / sizeof (wchar_t))
 return __mbstowcs_chk_warn (__dst, __src, __len,
         __builtin_object_size (__dst, 2 > 1) / sizeof (wchar_t));
    }
  return __mbstowcs_alias (__dst, __src, __len);
}


extern size_t __wcstombs_chk (char *__restrict __dst,
         __const wchar_t *__restrict __src,
         size_t __len, size_t __dstlen) __attribute__ ((__nothrow__ , __leaf__));
extern size_t __wcstombs_alias (char *__restrict __dst, __const wchar_t *__restrict __src, size_t __len) __asm__ ("" "wcstombs") __attribute__ ((__nothrow__ , __leaf__))


                                  ;
extern size_t __wcstombs_chk_warn (char *__restrict __dst, __const wchar_t *__restrict __src, size_t __len, size_t __dstlen) __asm__ ("" "__wcstombs_chk") __attribute__ ((__nothrow__ , __leaf__))



     __attribute__((__warning__ ("wcstombs called with dst buffer smaller than len")));

extern __inline __attribute__ ((__always_inline__)) __attribute__ ((__gnu_inline__, __artificial__)) size_t
__attribute__ ((__nothrow__ , __leaf__)) wcstombs (char *__restrict __dst, __const wchar_t *__restrict __src, size_t __len)

{
  if (__builtin_object_size (__dst, 2 > 1) != (size_t) -1)
    {
      if (!__builtin_constant_p (__len))
 return __wcstombs_chk (__dst, __src, __len, __builtin_object_size (__dst, 2 > 1));
      if (__len > __builtin_object_size (__dst, 2 > 1))
 return __wcstombs_chk_warn (__dst, __src, __len, __builtin_object_size (__dst, 2 > 1));
    }
  return __wcstombs_alias (__dst, __src, __len);
}
# 956 "/usr/include/stdlib.h" 2 3 4
# 964 "/usr/include/stdlib.h" 3 4

# 3 "algB.c" 2
# 1 "/usr/include/time.h" 1 3 4
# 30 "/usr/include/time.h" 3 4








# 1 "/usr/lib/gcc/i686-linux-gnu/4.7/include/stddef.h" 1 3 4
# 39 "/usr/include/time.h" 2 3 4



# 1 "/usr/include/i386-linux-gnu/bits/time.h" 1 3 4
# 43 "/usr/include/time.h" 2 3 4
# 58 "/usr/include/time.h" 3 4


typedef __clock_t clock_t;

# 74 "/usr/include/time.h" 3 4


typedef __time_t time_t;

# 131 "/usr/include/time.h" 3 4


struct tm
{
  int tm_sec;
  int tm_min;
  int tm_hour;
  int tm_mday;
  int tm_mon;
  int tm_year;
  int tm_wday;
  int tm_yday;
  int tm_isdst;





  long int __tm_gmtoff;
  __const char *__tm_zone;

};

# 180 "/usr/include/time.h" 3 4



extern clock_t clock (void) __attribute__ ((__nothrow__ , __leaf__));


extern time_t time (time_t *__timer) __attribute__ ((__nothrow__ , __leaf__));


extern double difftime (time_t __time1, time_t __time0)
     __attribute__ ((__nothrow__ , __leaf__)) __attribute__ ((__const__));


extern time_t mktime (struct tm *__tp) __attribute__ ((__nothrow__ , __leaf__));





extern size_t strftime (char *__restrict __s, size_t __maxsize,
   __const char *__restrict __format,
   __const struct tm *__restrict __tp) __attribute__ ((__nothrow__ , __leaf__));

# 230 "/usr/include/time.h" 3 4



extern struct tm *gmtime (__const time_t *__timer) __attribute__ ((__nothrow__ , __leaf__));



extern struct tm *localtime (__const time_t *__timer) __attribute__ ((__nothrow__ , __leaf__));

# 252 "/usr/include/time.h" 3 4



extern char *asctime (__const struct tm *__tp) __attribute__ ((__nothrow__ , __leaf__));


extern char *ctime (__const time_t *__timer) __attribute__ ((__nothrow__ , __leaf__));

# 276 "/usr/include/time.h" 3 4
extern char *__tzname[2];
extern int __daylight;
extern long int __timezone;
# 417 "/usr/include/time.h" 3 4

# 4 "algB.c" 2

int generateTable(int table[], int tableWidth);
int printTable(int table[], int tableWidth);
int bubleSort(int table[],int tableWidth);
int main ()
{
 int tableWidth = 10000;
 int table[tableWidth];
 srand((unsigned)time(((void *)0)));
 generateTable( table, tableWidth );

 bubleSort(table,tableWidth);

 generateTable( table, tableWidth );
 bubleSort(table,tableWidth);
 return 0;
}
int bubleSort(int table[],int tableWidth)
{
 double duration;
 clock_t start,finish;
 int i,temp,a;
 start = clock();
 for ( a = 0; a < tableWidth; a += 1)
 {
  for ( i = 0; i < tableWidth; i += 1)
  {
   if(i+1 < tableWidth){
    if( table[i] > table[i+1] )
    {

     temp = table[i+1];
     table[i+1]=table[i];
     table[i]=temp;
    }
   }
  }
 }

 finish = clock();

 duration = (double) (finish-start) / 1000000l;

 printf( "bubleSort()  Czas obliczen: %f\n", duration );
 return 0;
}

int generateTable(int table[], int tableWidth)
{
 int i;
 for ( i = 0; i < tableWidth; i += 1)
 {
  table[i] = rand()%10;
 }
 return 0;
}
int printTable(int table[], int tableWidth)
{
 int i;
 printf( "TABLE: [ " );

 for ( i = 0; i < tableWidth; i += 1)
 {
  printf( "%i ",table[i] );

 }
 printf( "]\n" );
 return 0;
}
