# Netscape HTTP Cookie File
# http://curl.haxx.se/docs/http-cookies.html
# This file was generated by libcurl! Edit at your own risk.

.travian.pl	TRUE	/	FALSE	1457728178	CAD	113103129%23%23%23%23%23%23
ts1.travian.pl	FALSE	/	FALSE	0	sess_id	b1fe0bbc3234a23aada14e8b5855cba0
#HttpOnly_ts1.travian.pl	FALSE	/	FALSE	0	lowRes	1
#HttpOnly_ts1.travian.pl	FALSE	/	FALSE	0	T3E	1gTYlhTYkZjZ1oDM1UzM0AzM6YzM3UjO5MTN0QDMzYzMxoDM6U2NjRDZjhzNmZGMwQGN0EGM2QWNmZTMjVGNwUmYzUWO0QWZ5QWM1EjOzV3dp5me6kjN0UTN6kjN0UTNjkjN0UTNjkjN0UTN
